"Network","Client","Client Account","Unit Type","Job Site","Completion Status","Service Rate","Referral Fee"
"Noise","Warranty Direct",5890005,"AUDIO","Field Call","Complete Job","58",3
"Noise","Warranty Direct",5890005,"AUDIO","Workshop","Complete Job","38",3
"Noise","Warranty Direct",5890005,"DVD/BLU RAY","Field Call","Complete Job","58",3
"Noise","Warranty Direct",5890005,"DVD/BLU RAY","Workshop","Complete Job","38",3
"Noise","Warranty Direct",5890005,"HOME CINEMA","Field Call","Complete Job","58",3
"Noise","Warranty Direct",5890005,"HOME CINEMA","Workshop","Complete Job","38",3
"Noise","Warranty Direct",5890005,"LCD TV <32inch","Field Call","Complete Job","65",3
"Noise","Warranty Direct",5890005,"LCD TV <32inch","Workshop","Complete Job","45",3
"Noise","Warranty Direct",5890005,"LCD TV 32INCH","Field Call","Complete Job","105",6
"Noise","Warranty Direct",5890005,"LCD TV 32INCH","Workshop","Complete Job","105",6
"Noise","Warranty Direct",5890005,"LCD TV/DVD COMBI <32INCH","Field Call","Complete Job","65",3
"Noise","Warranty Direct",5890005,"LCD TV/DVD COMBI <32INCH","Workshop","Complete Job","45",3
"Noise","Warranty Direct",5890005,"LCD TV/DVD COMBI 32INCH+","Field Call","Complete Job","105",6
"Noise","Warranty Direct",5890005,"LCD TV/DVD COMBI 32INCH+","Workshop","Complete Job","105",6
"Noise","Warranty Direct",5890005,"LCD/PLASMA TV 33-41INCH","Field Call","BER","65",6
"Noise","Warranty Direct",5890005,"LCD/PLASMA TV 33-41INCH","Workshop","BER","65",6
"Noise","Warranty Direct",5890005,"LCD/PLASMA TV 33-41INCH","Field Call","INSPECTION","65",6
"Noise","Warranty Direct",5890005,"LCD/PLASMA TV 33-41INCH","Workshop","INSPECTION","65",6
"Noise","Warranty Direct",5890005,"LCD/PLASMA TV 33-41INCH","Field Call","NFF","65",6
"Noise","Warranty Direct",5890005,"LCD/PLASMA TV 33-41INCH","Workshop","NFF","65",6
"Noise","Warranty Direct",5890005,"LCD/PLASMA TV 33-41INCH","Field Call","Complete Job","105",6
"Noise","Warranty Direct",5890005,"LCD/PLASMA TV 33-41INCH","Workshop","Complete Job","105",6
"Noise","Warranty Direct",5890005,"LCD/PLASMA TV 42INCH+","Field Call","Complete Job","120",6
"Noise","Warranty Direct",5890005,"LCD/PLASMA TV 42INCH+","Workshop","Complete Job","120",6
"Noise","Warranty Direct",5890005,"PROJECTION TV","Field Call","Complete Job","120",3
"Noise","Warranty Direct",5890005,"PROJECTION TV","Workshop","Complete Job","120",3
"Noise","Warranty Direct",5890005,"PVR","Field Call","Complete Job","58",3
"Noise","Warranty Direct",5890005,"PVR","Workshop","Complete Job","38",3
"Noise","Warranty Direct",5890005,"SATELLITE SYSTEM","Field Call","Complete Job","52",3
"Noise","Warranty Direct",5890005,"TV AERIAL","Field Call","Complete Job","49",6
"Noise","Argos",5890006,"LCD TV <32INCH","Field Call","BER","49.8",3
"Noise","Argos",5890006,"LCD TV <32INCH","Workshop","BER","49.8",3
"Noise","Argos",5890006,"LCD TV <32INCH","Field Call","Complete Job","56.52",3
"Noise","Argos",5890006,"LCD TV <32INCH","Workshop","Complete Job","56.52",3
"Noise","Argos",5890006,"LCD TV <32INCH","Field Call","INSPECTION","49.8",3
"Noise","Argos",5890006,"LCD TV <32INCH","Workshop","INSPECTION","49.8",3
"Noise","Argos",5890006,"LCD TV <32INCH","Field Call","NFF","49.8",3
"Noise","Argos",5890006,"LCD TV <32INCH","Workshop","NFF","49.8",3
"Noise","Argos",5890006,"LCD TV <32INCH","Field Call","SOFT SERVICE","9",3
"Noise","Argos",5890006,"LCD TV <32INCH","Workshop","SOFT SERVICE","9",3
"Noise","Argos",5890006,"LCD TV 32INCH","Field Call","BER","56.4",6
"Noise","Argos",5890006,"LCD TV 32INCH","Workshop","BER","56.4",6
"Noise","Argos",5890006,"LCD TV 32INCH","Field Call","Complete Job","90",6
"Noise","Argos",5890006,"LCD TV 32INCH","Workshop","Complete Job","90",6
"Noise","Argos",5890006,"LCD TV 32INCH","Field Call","INSPECTION","56.4",6
"Noise","Argos",5890006,"LCD TV 32INCH","Workshop","INSPECTION","56.4",6
"Noise","Argos",5890006,"LCD TV 32INCH","Field Call","NFF","56.4",6
"Noise","Argos",5890006,"LCD TV 32INCH","Workshop","NFF","56.4",6
"Noise","Argos",5890006,"LCD TV 32INCH","Field Call","SOFT SERVICE","9",6
"Noise","Argos",5890006,"LCD TV 32INCH","Workshop","SOFT SERVICE","9",6
"Noise","Argos",5890006,"LCD TV/DVD COMBI <32INCH","Field Call","BER","49.8",3
"Noise","Argos",5890006,"LCD TV/DVD COMBI <32INCH","Workshop","BER","49.8",3
"Noise","Argos",5890006,"LCD TV/DVD COMBI <32INCH","Field Call","Complete Job","56.52",3
"Noise","Argos",5890006,"LCD TV/DVD COMBI <32INCH","Workshop","Complete Job","56.52",3
"Noise","Argos",5890006,"LCD TV/DVD COMBI <32INCH","Field Call","INSPECTION","49.8",3
"Noise","Argos",5890006,"LCD TV/DVD COMBI <32INCH","Workshop","INSPECTION","49.8",3
"Noise","Argos",5890006,"LCD TV/DVD COMBI <32INCH","Field Call","NFF","49.8",3
"Noise","Argos",5890006,"LCD TV/DVD COMBI <32INCH","Workshop","NFF","49.8",3
"Noise","Argos",5890006,"LCD TV/DVD COMBI <32INCH","Field Call","SOFT SERVICE","9",3
"Noise","Argos",5890006,"LCD TV/DVD COMBI <32INCH","Workshop","SOFT SERVICE","9",3
"Noise","Argos",5890006,"LCD TV/DVD COMBI 32INCH+","Field Call","BER","56.4",6
"Noise","Argos",5890006,"LCD TV/DVD COMBI 32INCH+","Workshop","BER","56.4",6
"Noise","Argos",5890006,"LCD TV/DVD COMBI 32INCH+","Field Call","Complete Job","90",6
"Noise","Argos",5890006,"LCD TV/DVD COMBI 32INCH+","Workshop","Complete Job","90",6
"Noise","Argos",5890006,"LCD TV/DVD COMBI 32INCH+","Field Call","INSPECTION","56.4",6
"Noise","Argos",5890006,"LCD TV/DVD COMBI 32INCH+","Workshop","INSPECTION","56.4",6
"Noise","Argos",5890006,"LCD TV/DVD COMBI 32INCH+","Field Call","NFF","56.4",6
"Noise","Argos",5890006,"LCD TV/DVD COMBI 32INCH+","Workshop","NFF","56.4",6
"Noise","Argos",5890006,"LCD TV/DVD COMBI 32INCH+","Field Call","SOFT SERVICE","9",6
"Noise","Argos",5890006,"LCD TV/DVD COMBI 32INCH+","Workshop","SOFT SERVICE","9",6
"Noise","Argos",5890006,"LCD/PLASMA TV 33-46INCH","Field Call","BER","56.4",6
"Noise","Argos",5890006,"LCD/PLASMA TV 33-46INCH","Workshop","BER","56.4",6
"Noise","Argos",5890006,"LCD/PLASMA TV 33-46INCH","Field Call","Complete Job","90",6
"Noise","Argos",5890006,"LCD/PLASMA TV 33-46INCH","Workshop","Complete Job","90",6
"Noise","Argos",5890006,"LCD/PLASMA TV 33-46INCH","Field Call","INSPECTION","56.4",6
"Noise","Argos",5890006,"LCD/PLASMA TV 33-46INCH","Workshop","INSPECTION","56.4",6
"Noise","Argos",5890006,"LCD/PLASMA TV 33-46INCH","Field Call","NFF","56.4",6
"Noise","Argos",5890006,"LCD/PLASMA TV 33-46INCH","Workshop","NFF","56.4",6
"Noise","Argos",5890006,"LCD/PLASMA TV 33-46INCH","Field Call","SOFT SERVICE","9",6
"Noise","Argos",5890006,"LCD/PLASMA TV 33-46INCH","Workshop","SOFT SERVICE","9",6
"Noise","Argos",5890006,"LCD/PLASMA TV 47INCH+","Field Call","BER","56.4",6
"Noise","Argos",5890006,"LCD/PLASMA TV 47INCH+","Workshop","BER","56.4",6
"Noise","Argos",5890006,"LCD/PLASMA TV 47INCH+","Field Call","Complete Job","104.4",6
"Noise","Argos",5890006,"LCD/PLASMA TV 47INCH+","Workshop","Complete Job","104.4",6
"Noise","Argos",5890006,"LCD/PLASMA TV 47INCH+","Field Call","INSPECTION","56.4",6
"Noise","Argos",5890006,"LCD/PLASMA TV 47INCH+","Workshop","INSPECTION","56.4",6
"Noise","Argos",5890006,"LCD/PLASMA TV 47INCH+","Field Call","NFF","56.4",6
"Noise","Argos",5890006,"LCD/PLASMA TV 47INCH+","Workshop","NFF","56.4",6
"Noise","Argos",5890006,"LCD/PLASMA TV 47INCH+","Field Call","SOFT SERVICE","9",6
"Noise","Argos",5890006,"LCD/PLASMA TV 47INCH+","Workshop","SOFT SERVICE","9",6
"Noise","Argos",5890006,"TV AERIAL","Field Call","Complete Job","20",0
"Noise","DIXONS RETAIL PLC",5890007,"AUDIO","Field Call","Complete Job","57.5",3
"Noise","DIXONS RETAIL PLC",5890007,"AUDIO","Workshop","Complete Job","37.5",3
"Noise","DIXONS RETAIL PLC",5890007,"DVD/BLU RAY","Field Call","Complete Job","57.5",3
"Noise","DIXONS RETAIL PLC",5890007,"DVD/BLU RAY","Workshop","Complete Job","37.5",3
"Noise","DIXONS RETAIL PLC",5890007,"HOME CINEMA","Field Call","Complete Job","57.5",3
"Noise","DIXONS RETAIL PLC",5890007,"HOME CINEMA","Workshop","Complete Job","37.5",3
"Noise","DIXONS RETAIL PLC",5890007,"LCD TV <32inch","Field Call","Complete Job","63.33",3
"Noise","DIXONS RETAIL PLC",5890007,"LCD TV <32inch","Workshop","Complete Job","43.33",3
"Noise","DIXONS RETAIL PLC",5890007,"LCD TV 32INCH","Field Call","Complete Job","105",6
"Noise","DIXONS RETAIL PLC",5890007,"LCD TV 32INCH","Workshop","Complete Job","105",6
"Noise","DIXONS RETAIL PLC",5890007,"LCD TV/DVD COMBI <32INCH","Field Call","Complete Job","63.33",3
"Noise","DIXONS RETAIL PLC",5890007,"LCD TV/DVD COMBI <32INCH","Workshop","Complete Job","43.33",3
"Noise","DIXONS RETAIL PLC",5890007,"LCD TV/DVD COMBI 32INCH+","Field Call","Complete Job","105",6
"Noise","DIXONS RETAIL PLC",5890007,"LCD TV/DVD COMBI 32INCH+","Workshop","Complete Job","105",6
"Noise","DIXONS RETAIL PLC",5890007,"LCD/PLASMA TV 33-41INCH","Field Call","Complete Job","105",6
"Noise","DIXONS RETAIL PLC",5890007,"LCD/PLASMA TV 33-41INCH","Workshop","Complete Job","105",6
"Noise","DIXONS RETAIL PLC",5890007,"LCD/PLASMA TV 42INCH+","Field Call","Complete Job","120.83",6
"Noise","DIXONS RETAIL PLC",5890007,"LCD/PLASMA TV 42INCH+","Workshop","Complete Job","120.83",6
"Noise","DIXONS RETAIL PLC",5890007,"PROJECTION TV","Field Call","Complete Job","120.83",3
"Noise","DIXONS RETAIL PLC",5890007,"PROJECTION TV","Workshop","Complete Job","120.83",3
"Noise","DIXONS RETAIL PLC",5890007,"PVR","Field Call","Complete Job","57.5",3
"Noise","DIXONS RETAIL PLC",5890007,"PVR","Workshop","Complete Job","37.5",3
"Noise","DIXONS RETAIL PLC",5890007,"SATELLITE SYSTEM","Field Call","Complete Job","52",3
"Noise","DIXONS RETAIL PLC",5890007,"TV AERIAL","Field Call","Complete Job","49",6
"Noise","Home Appliance Guard",5890043,"AUDIO","Field Call","Complete Job","58",3
"Noise","Home Appliance Guard",5890043,"AUDIO","Workshop","Complete Job","38",3
"Noise","Home Appliance Guard",5890043,"DVD/BLU RAY","Field Call","Complete Job","58",3
"Noise","Home Appliance Guard",5890043,"DVD/BLU RAY","Workshop","Complete Job","38",3
"Noise","Home Appliance Guard",5890043,"HOME CINEMA","Field Call","Complete Job","58",3
"Noise","Home Appliance Guard",5890043,"HOME CINEMA","Workshop","Complete Job","38",3
"Noise","Home Appliance Guard",5890043,"LCD TV <32inch","Field Call","Complete Job","65",3
"Noise","Home Appliance Guard",5890043,"LCD TV <32inch","Workshop","Complete Job","45",3
"Noise","Home Appliance Guard",5890043,"LCD TV 32INCH","Field Call","Complete Job","105",6
"Noise","Home Appliance Guard",5890043,"LCD TV 32INCH","Workshop","Complete Job","105",6
"Noise","Home Appliance Guard",5890043,"LCD TV/DVD COMBI <32INCH","Field Call","Complete Job","65",3
"Noise","Home Appliance Guard",5890043,"LCD TV/DVD COMBI <32INCH","Workshop","Complete Job","45",3
"Noise","Home Appliance Guard",5890043,"LCD TV/DVD COMBI 32INCH+","Field Call","Complete Job","105",6
"Noise","Home Appliance Guard",5890043,"LCD TV/DVD COMBI 32INCH+","Workshop","Complete Job","105",6
"Noise","Home Appliance Guard",5890043,"LCD/PLASMA TV 33-41INCH","Field Call","Complete Job","105",6
"Noise","Home Appliance Guard",5890043,"LCD/PLASMA TV 33-41INCH","Workshop","Complete Job","105",6
"Noise","Home Appliance Guard",5890043,"LCD/PLASMA TV 42INCH+","Field Call","Complete Job","120",6
"Noise","Home Appliance Guard",5890043,"LCD/PLASMA TV 42INCH+","Workshop","Complete Job","120",6
"Noise","Home Appliance Guard",5890043,"PROJECTION TV","Field Call","Complete Job","120",3
"Noise","Home Appliance Guard",5890043,"PROJECTION TV","Workshop","Complete Job","120",3
"Noise","Home Appliance Guard",5890043,"PVR","Field Call","Complete Job","58",3
"Noise","Home Appliance Guard",5890043,"PVR","Workshop","Complete Job","38",3
"Noise","Home Appliance Guard",5890043,"SATELLITE SYSTEM","Field Call","Complete Job","52",3
"Noise","Home Appliance Guard",5890043,"TV AERIAL","Field Call","Complete Job","49",6
"Noise","Big Warranties Limited",5890118,"LCD TV <32inch","Field Call","BER","49",3
"Noise","Big Warranties Limited",5890118,"LCD TV <32inch","Workshop","BER","49",3
"Noise","Big Warranties Limited",5890118,"LCD TV <32inch","Field Call","Complete Job","59",3
"Noise","Big Warranties Limited",5890118,"LCD TV <32inch","Workshop","Complete Job","59",3
"Noise","Big Warranties Limited",5890118,"LCD TV <32inch","Field Call","INSPECTION","49",3
"Noise","Big Warranties Limited",5890118,"LCD TV <32inch","Workshop","INSPECTION","49",3
"Noise","Big Warranties Limited",5890118,"LCD TV <32inch","Field Call","NFF","49",3
"Noise","Big Warranties Limited",5890118,"LCD TV <32inch","Workshop","NFF","49",3
"Noise","Big Warranties Limited",5890118,"LCD TV 32INCH","Field Call","BER","59",6
"Noise","Big Warranties Limited",5890118,"LCD TV 32INCH","Workshop","BER","59",6
"Noise","Big Warranties Limited",5890118,"LCD TV 32INCH","Field Call","Complete Job","99",6
"Noise","Big Warranties Limited",5890118,"LCD TV 32INCH","Workshop","Complete Job","99",6
"Noise","Big Warranties Limited",5890118,"LCD TV 32INCH","Field Call","INSPECTION","59",6
"Noise","Big Warranties Limited",5890118,"LCD TV 32INCH","Workshop","INSPECTION","59",6
"Noise","Big Warranties Limited",5890118,"LCD TV 32INCH","Field Call","NFF","59",6
"Noise","Big Warranties Limited",5890118,"LCD TV 32INCH","Workshop","NFF","59",6
"Noise","Big Warranties Limited",5890118,"LCD/PLASMA TV 33-41INCH","Field Call","BER","59",6
"Noise","Big Warranties Limited",5890118,"LCD/PLASMA TV 33-41INCH","Workshop","BER","59",6
"Noise","Big Warranties Limited",5890118,"LCD/PLASMA TV 33-41INCH","Field Call","Complete Job","99",6
"Noise","Big Warranties Limited",5890118,"LCD/PLASMA TV 33-41INCH","Workshop","Complete Job","99",6
"Noise","Big Warranties Limited",5890118,"LCD/PLASMA TV 33-41INCH","Field Call","INSPECTION","59",6
"Noise","Big Warranties Limited",5890118,"LCD/PLASMA TV 33-41INCH","Workshop","INSPECTION","59",6
"Noise","Big Warranties Limited",5890118,"LCD/PLASMA TV 33-41INCH","Field Call","NFF","59",6
"Noise","Big Warranties Limited",5890118,"LCD/PLASMA TV 33-41INCH","Workshop","NFF","59",6
"Noise","Big Warranties Limited",5890118,"LCD/PLASMA TV 42INCH+","Field Call","BER","59",6
"Noise","Big Warranties Limited",5890118,"LCD/PLASMA TV 42INCH+","Workshop","BER","59",6
"Noise","Big Warranties Limited",5890118,"LCD/PLASMA TV 42INCH+","Field Call","Complete Job","114",6
"Noise","Big Warranties Limited",5890118,"LCD/PLASMA TV 42INCH+","Workshop","Complete Job","114",6
"Noise","Big Warranties Limited",5890118,"LCD/PLASMA TV 42INCH+","Field Call","INSPECTION","59",6
"Noise","Big Warranties Limited",5890118,"LCD/PLASMA TV 42INCH+","Workshop","INSPECTION","59",6
"Noise","Big Warranties Limited",5890118,"LCD/PLASMA TV 42INCH+","Field Call","NFF","59",6
"Noise","Big Warranties Limited",5890118,"LCD/PLASMA TV 42INCH+","Workshop","NFF","59",6
"Noise","DIGITAL REPAIR SERVICES LTD",5890129,"LCD TV <32inch","Field Call","BER","49",3
"Noise","DIGITAL REPAIR SERVICES LTD",5890129,"LCD TV <32inch","Workshop","BER","49",3
"Noise","DIGITAL REPAIR SERVICES LTD",5890129,"LCD TV <32inch","Field Call","Complete Job","59",3
"Noise","DIGITAL REPAIR SERVICES LTD",5890129,"LCD TV <32inch","Workshop","Complete Job","59",3
"Noise","DIGITAL REPAIR SERVICES LTD",5890129,"LCD TV <32inch","Field Call","INSPECTION","49",3
"Noise","DIGITAL REPAIR SERVICES LTD",5890129,"LCD TV <32inch","Workshop","INSPECTION","49",3
"Noise","DIGITAL REPAIR SERVICES LTD",5890129,"LCD TV <32inch","Field Call","NFF","49",3
"Noise","DIGITAL REPAIR SERVICES LTD",5890129,"LCD TV <32inch","Workshop","NFF","49",3
"Noise","DIGITAL REPAIR SERVICES LTD",5890129,"LCD TV 32INCH","Field Call","BER","59",6
"Noise","DIGITAL REPAIR SERVICES LTD",5890129,"LCD TV 32INCH","Workshop","BER","59",6
"Noise","DIGITAL REPAIR SERVICES LTD",5890129,"LCD TV 32INCH","Field Call","Complete Job","99",6
"Noise","DIGITAL REPAIR SERVICES LTD",5890129,"LCD TV 32INCH","Workshop","Complete Job","99",6
"Noise","DIGITAL REPAIR SERVICES LTD",5890129,"LCD TV 32INCH","Field Call","INSPECTION","59",6
"Noise","DIGITAL REPAIR SERVICES LTD",5890129,"LCD TV 32INCH","Workshop","INSPECTION","59",6
"Noise","DIGITAL REPAIR SERVICES LTD",5890129,"LCD TV 32INCH","Field Call","NFF","59",6
"Noise","DIGITAL REPAIR SERVICES LTD",5890129,"LCD TV 32INCH","Workshop","NFF","59",6
"Noise","DIGITAL REPAIR SERVICES LTD",5890129,"LCD/PLASMA TV 33-41INCH","Field Call","BER","59",6
"Noise","DIGITAL REPAIR SERVICES LTD",5890129,"LCD/PLASMA TV 33-41INCH","Workshop","BER","59",6
"Noise","DIGITAL REPAIR SERVICES LTD",5890129,"LCD/PLASMA TV 33-41INCH","Field Call","Complete Job","99",6
"Noise","DIGITAL REPAIR SERVICES LTD",5890129,"LCD/PLASMA TV 33-41INCH","Workshop","Complete Job","99",6
"Noise","DIGITAL REPAIR SERVICES LTD",5890129,"LCD/PLASMA TV 33-41INCH","Field Call","INSPECTION","59",6
"Noise","DIGITAL REPAIR SERVICES LTD",5890129,"LCD/PLASMA TV 33-41INCH","Workshop","INSPECTION","59",6
"Noise","DIGITAL REPAIR SERVICES LTD",5890129,"LCD/PLASMA TV 33-41INCH","Field Call","NFF","59",6
"Noise","DIGITAL REPAIR SERVICES LTD",5890129,"LCD/PLASMA TV 33-41INCH","Workshop","NFF","59",6
"Noise","DIGITAL REPAIR SERVICES LTD",5890129,"LCD/PLASMA TV 42INCH+","Field Call","BER","59",6
"Noise","DIGITAL REPAIR SERVICES LTD",5890129,"LCD/PLASMA TV 42INCH+","Workshop","BER","59",6
"Noise","DIGITAL REPAIR SERVICES LTD",5890129,"LCD/PLASMA TV 42INCH+","Field Call","Complete Job","114",6
"Noise","DIGITAL REPAIR SERVICES LTD",5890129,"LCD/PLASMA TV 42INCH+","Workshop","Complete Job","114",6
"Noise","DIGITAL REPAIR SERVICES LTD",5890129,"LCD/PLASMA TV 42INCH+","Field Call","INSPECTION","59",6
"Noise","DIGITAL REPAIR SERVICES LTD",5890129,"LCD/PLASMA TV 42INCH+","Workshop","INSPECTION","59",6
"Noise","DIGITAL REPAIR SERVICES LTD",5890129,"LCD/PLASMA TV 42INCH+","Field Call","NFF","59",6
"Noise","DIGITAL REPAIR SERVICES LTD",5890129,"LCD/PLASMA TV 42INCH+","Workshop","NFF","59",6
"Noise",,,"AUDIO","Field Call","BER","30",3
"Noise",,,"AUDIO","Workshop","BER","30",3
"Noise",,,"AUDIO","Field Call","Complete Job","57.5",3
"Noise",,,"AUDIO","Workshop","Complete Job","37.5",3
"Noise",,,"AUDIO","Field Call","INSPECTION","30",3
"Noise",,,"AUDIO","Workshop","INSPECTION","30",3
"Noise",,,"AUDIO","Field Call","NFF","30",3
"Noise",,,"AUDIO","Workshop","NFF","30",3
"Noise",,,"DVD/BLU RAY","Field Call","BER","30",3
"Noise",,,"DVD/BLU RAY","Workshop","BER","30",3
"Noise",,,"DVD/BLU RAY","Field Call","Complete Job","57.5",3
"Noise",,,"DVD/BLU RAY","Workshop","Complete Job","37.5",3
"Noise",,,"DVD/BLU RAY","Field Call","INSPECTION","30",3
"Noise",,,"DVD/BLU RAY","Workshop","INSPECTION","30",3
"Noise",,,"DVD/BLU RAY","Field Call","NFF","30",3
"Noise",,,"DVD/BLU RAY","Workshop","NFF","30",3
"Noise",,,"HOME CINEMA","Field Call","BER","30",3
"Noise",,,"HOME CINEMA","Workshop","BER","30",3
"Noise",,,"HOME CINEMA","Field Call","Complete Job","57.5",3
"Noise",,,"HOME CINEMA","Workshop","Complete Job","37.5",3
"Noise",,,"HOME CINEMA","Field Call","INSPECTION","30",3
"Noise",,,"HOME CINEMA","Workshop","INSPECTION","30",3
"Noise",,,"HOME CINEMA","Field Call","NFF","30",3
"Noise",,,"HOME CINEMA","Workshop","NFF","30",3
"Noise",,,"LCD TV <32inch","Field Call","BER","33.33",3
"Noise",,,"LCD TV <32inch","Workshop","BER","33.33",3
"Noise",,,"LCD TV <32inch","Field Call","Complete Job","63.33",3
"Noise",,,"LCD TV <32inch","Workshop","Complete Job","43.33",3
"Noise",,,"LCD TV <32inch","Field Call","INSPECTION","33.33",3
"Noise",,,"LCD TV <32inch","Workshop","INSPECTION","33.33",3
"Noise",,,"LCD TV <32inch","Field Call","NFF","33.33",3
"Noise",,,"LCD TV <32inch","Workshop","NFF","33.33",3
"Noise",,,"LCD TV 32INCH","Field Call","BER","65",6
"Noise",,,"LCD TV 32INCH","Workshop","BER","65",6
"Noise",,,"LCD TV 32INCH","Field Call","Complete Job","105",6
"Noise",,,"LCD TV 32INCH","Workshop","Complete Job","105",6
"Noise",,,"LCD TV 32INCH","Field Call","INSPECTION","65",6
"Noise",,,"LCD TV 32INCH","Workshop","INSPECTION","65",6
"Noise",,,"LCD TV 32INCH","Field Call","NFF","65",6
"Noise",,,"LCD TV 32INCH","Workshop","NFF","65",6
"Noise",,,"LCD TV/DVD COMBI <32INCH","Field Call","BER","33.33",3
"Noise",,,"LCD TV/DVD COMBI <32INCH","Workshop","BER","33.33",3
"Noise",,,"LCD TV/DVD COMBI <32INCH","Field Call","Complete Job","63.33",3
"Noise",,,"LCD TV/DVD COMBI <32INCH","Workshop","Complete Job","43.33",3
"Noise",,,"LCD TV/DVD COMBI <32INCH","Field Call","INSPECTION","33.33",3
"Noise",,,"LCD TV/DVD COMBI <32INCH","Workshop","INSPECTION","33.33",3
"Noise",,,"LCD TV/DVD COMBI <32INCH","Field Call","NFF","33.33",3
"Noise",,,"LCD TV/DVD COMBI <32INCH","Workshop","NFF","33.33",3
"Noise",,,"LCD TV/DVD COMBI 32INCH+","Field Call","BER","65",6
"Noise",,,"LCD TV/DVD COMBI 32INCH+","Workshop","BER","65",6
"Noise",,,"LCD TV/DVD COMBI 32INCH+","Field Call","Complete Job","105",6
"Noise",,,"LCD TV/DVD COMBI 32INCH+","Workshop","Complete Job","105",6
"Noise",,,"LCD TV/DVD COMBI 32INCH+","Field Call","INSPECTION","65",6
"Noise",,,"LCD TV/DVD COMBI 32INCH+","Workshop","INSPECTION","65",6
"Noise",,,"LCD TV/DVD COMBI 32INCH+","Field Call","NFF","65",6
"Noise",,,"LCD TV/DVD COMBI 32INCH+","Workshop","NFF","65",6
"Noise",,,"LCD/PLASMA TV 33-41INCH","Field Call","BER","65",6
"Noise",,,"LCD/PLASMA TV 33-41INCH","Workshop","BER","65",6
"Noise",,,"LCD/PLASMA TV 33-41INCH","Field Call","Complete Job","105",6
"Noise",,,"LCD/PLASMA TV 33-41INCH","Workshop","Complete Job","105",6
"Noise",,,"LCD/PLASMA TV 33-41INCH","Field Call","INSPECTION","65",6
"Noise",,,"LCD/PLASMA TV 33-41INCH","Workshop","INSPECTION","65",6
"Noise",,,"LCD/PLASMA TV 33-41INCH","Field Call","NFF","65",6
"Noise",,,"LCD/PLASMA TV 33-41INCH","Workshop","NFF","65",6
"Noise",,,"LCD/PLASMA TV 42INCH+","Field Call","BER","65",6
"Noise",,,"LCD/PLASMA TV 42INCH+","Workshop","BER","65",6
"Noise",,,"LCD/PLASMA TV 42INCH+","Field Call","Complete Job","120.83",6
"Noise",,,"LCD/PLASMA TV 42INCH+","Workshop","Complete Job","120.83",6
"Noise",,,"LCD/PLASMA TV 42INCH+","Field Call","INSPECTION","65",6
"Noise",,,"LCD/PLASMA TV 42INCH+","Workshop","INSPECTION","65",6
"Noise",,,"LCD/PLASMA TV 42INCH+","Field Call","NFF","65",6
"Noise",,,"LCD/PLASMA TV 42INCH+","Workshop","NFF","65",6
"Noise",,,"PROJECTION TV","Field Call","BER","65",3
"Noise",,,"PROJECTION TV","Workshop","BER","65",3
"Noise",,,"PROJECTION TV","Field Call","Complete Job","120.83",3
"Noise",,,"PROJECTION TV","Workshop","Complete Job","120.83",3
"Noise",,,"PROJECTION TV","Field Call","INSPECTION","65",3
"Noise",,,"PROJECTION TV","Workshop","INSPECTION","65",3
"Noise",,,"PROJECTION TV","Field Call","NFF","65",3
"Noise",,,"PROJECTION TV","Workshop","NFF","65",3
"Noise",,,"PVR","Field Call","BER","30",3
"Noise",,,"PVR","Workshop","BER","30",3
"Noise",,,"PVR","Field Call","Complete Job","57.5",3
"Noise",,,"PVR","Workshop","Complete Job","37.5",3
"Noise",,,"PVR","Field Call","INSPECTION","30",3
"Noise",,,"PVR","Workshop","INSPECTION","30",3
"Noise",,,"PVR","Field Call","NFF","30",3
"Noise",,,"PVR","Workshop","NFF","30",3
"Noise",,,"SATELLITE SYSTEM","Field Call","Complete Job","52",3
"Noise",,,"TV AERIAL","Field Call","Complete Job","49",6
